TEW=W+LP+RP+LB+RB+LM+RM 
462=400+10+10+2+40
462=Total width

TEH=H+TP+BP+BT+BB+TM+BM
212=150+10+10+2+40
212+Total height

BW=B1+P1+W+PR+BR
1+10+400+10+1=422
422=Browser Calculated Height

BH=BT+PT+H+PB+BB
2+20+150=172
172=Browser Calculated Width

